<?xml version="1.0" standalone="no"?>
<!DOCTYPE svg PUBLIC "-//W3C//DTD SVG 20010904//EN"
 "http://www.w3.org/TR/2001/REC-SVG-20010904/DTD/svg10.dtd">
<svg version="1.0" xmlns="http://www.w3.org/2000/svg"
 width="100.000000pt" height="100.000000pt" viewBox="0 0 100.000000 100.000000"
 preserveAspectRatio="xMidYMid meet">
<metadata>
Created by potrace 1.11, written by Peter Selinger 2001-2013
</metadata>
<g transform="translate(0.000000,100.000000) scale(0.100000,-0.100000)"
fill="#000000" stroke="none">
<path d="M0 500 l0 -500 500 0 500 0 0 500 0 500 -500 0 -500 0 0 -500z m730
45 l0 -195 40 0 c33 0 40 -3 40 -20 0 -19 -7 -20 -110 -20 -103 0 -110 1 -110
20 0 17 7 20 45 20 l45 0 0 161 0 161 -45 -36 c-43 -36 -65 -40 -65 -12 0 19
118 116 141 116 18 0 19 -10 19 -195z m-462 47 l3 -22 26 20 c56 44 142 30
163 -26 6 -14 10 -77 10 -140 l0 -114 -25 0 -25 0 0 117 c0 94 -3 120 -17 135
-21 23 -60 23 -100 -2 l-33 -20 0 -115 c0 -108 -1 -115 -20 -115 -19 0 -20 7
-20 156 0 143 1 155 18 152 9 -2 18 -13 20 -26z"/>
</g>
</svg>
